^C:\USERS\EUGEN\SOURCE\REPOS\HOEMA_PRAKTIKUM\HOEMA_PRAKTIKUM\PRAKTIKUM_3\DEBUG\CMYVEKTOR.OBJ|C:\USERS\EUGEN\SOURCE\REPOS\HOEMA_PRAKTIKUM\HOEMA_PRAKTIKUM\PRAKTIKUM_3\DEBUG\C_DGLSOLVER.OBJ|C:\USERS\EUGEN\SOURCE\REPOS\HOEMA_PRAKTIKUM\HOEMA_PRAKTIKUM\PRAKTIKUM_3\DEBUG\MAIN.OBJ
C:\USERS\EUGEN\SOURCE\REPOS\HOEMA_PRAKTIKUM\HOEMA_PRAKTIKUM\DEBUG\PRAKTIKUM_3.EXE
C:\USERS\EUGEN\SOURCE\REPOS\HOEMA_PRAKTIKUM\HOEMA_PRAKTIKUM\DEBUG\PRAKTIKUM_3.ILK
C:\USERS\EUGEN\SOURCE\REPOS\HOEMA_PRAKTIKUM\HOEMA_PRAKTIKUM\DEBUG\PRAKTIKUM_3.PDB
