^C:\USERS\EUGEN\SOURCE\REPOS\HOEMA_PRAKTIKUM\HOEMA_PRAKTIKUM\PRAKTIKUM_1\CMYVEKTOR.CPP|C:\USERS\EUGEN\SOURCE\REPOS\HOEMA_PRAKTIKUM\HOEMA_PRAKTIKUM\PRAKTIKUM_1\MAIN.CPP
C:\USERS\EUGEN\SOURCE\REPOS\HOEMA_PRAKTIKUM\HOEMA_PRAKTIKUM\PRAKTIKUM_1\DEBUG\VC141.PDB
C:\USERS\EUGEN\SOURCE\REPOS\HOEMA_PRAKTIKUM\HOEMA_PRAKTIKUM\PRAKTIKUM_1\DEBUG\VC141.IDB
C:\USERS\EUGEN\SOURCE\REPOS\HOEMA_PRAKTIKUM\HOEMA_PRAKTIKUM\PRAKTIKUM_1\DEBUG\CMYVEKTOR.OBJ
C:\USERS\EUGEN\SOURCE\REPOS\HOEMA_PRAKTIKUM\HOEMA_PRAKTIKUM\PRAKTIKUM_1\DEBUG\MAIN.OBJ
^C:\USERS\EUGEN\SOURCE\REPOS\HOEMA_PRAKTIKUM\HOEMA_PRAKTIKUM\PRAKTIKUM_1\CMYVEKTOR.CPP
C:\USERS\EUGEN\SOURCE\REPOS\HOEMA_PRAKTIKUM\HOEMA_PRAKTIKUM\PRAKTIKUM_1\DEBUG\VC141.PDB
C:\USERS\EUGEN\SOURCE\REPOS\HOEMA_PRAKTIKUM\HOEMA_PRAKTIKUM\PRAKTIKUM_1\DEBUG\VC141.IDB
C:\USERS\EUGEN\SOURCE\REPOS\HOEMA_PRAKTIKUM\HOEMA_PRAKTIKUM\PRAKTIKUM_1\DEBUG\CMYVEKTOR.OBJ
^C:\USERS\EUGEN\SOURCE\REPOS\HOEMA_PRAKTIKUM\HOEMA_PRAKTIKUM\PRAKTIKUM_1\MAIN.CPP
C:\USERS\EUGEN\SOURCE\REPOS\HOEMA_PRAKTIKUM\HOEMA_PRAKTIKUM\PRAKTIKUM_1\DEBUG\VC141.PDB
C:\USERS\EUGEN\SOURCE\REPOS\HOEMA_PRAKTIKUM\HOEMA_PRAKTIKUM\PRAKTIKUM_1\DEBUG\VC141.IDB
C:\USERS\EUGEN\SOURCE\REPOS\HOEMA_PRAKTIKUM\HOEMA_PRAKTIKUM\PRAKTIKUM_1\DEBUG\MAIN.OBJ
